…
**search_gene**: Returns database with all the interactions of the input
gene, its sources and targets. Can be filtered by: “sources”,
“positive_sources”, “negative_sources”, “targets”, “positive_targets”,
“negative_targets”

``` r
gene="GRHL2"
search_gene(gene, interactions)
```

    ## $gene_name
    ## [1] "GRHL2"
    ## 
    ## $db
    ## # A tibble: 22 × 17
    ##    source target sourc…¹ targe…² is_di…³ is_st…⁴ is_in…⁵ conse…⁶ conse…⁷ conse…⁸
    ##    <chr>  <chr>  <chr>   <chr>     <dbl>   <dbl>   <dbl>   <dbl>   <dbl>   <dbl>
    ##  1 P37275 Q6ISB3 ZEB1    GRHL2         1       0       1       1       0       1
    ##  2 P08151 Q6ISB3 GLI1    GRHL2         1       0       1       1       0       1
    ##  3 P10275 Q6ISB3 AR      GRHL2         1       0       0       0       0       0
    ##  4 P03372 Q6ISB3 ESR1    GRHL2         1       0       0       0       0       0
    ##  5 Q6ISB3 O14746 GRHL2   TERT          1       1       0       1       1       0
    ##  6 Q6ISB3 Q9NRR8 GRHL2   CDC42S…       1       1       0       1       1       0
    ##  7 Q6ISB3 O15551 GRHL2   CLDN3         1       1       0       1       1       0
    ##  8 Q6ISB3 P57735 GRHL2   RAB25         1       1       0       1       1       0
    ##  9 Q6ISB3 P43699 GRHL2   NKX2-1        1       1       0       1       1       0
    ## 10 Q6ISB3 P21860 GRHL2   ERBB3         1       1       0       1       1       0
    ## # … with 12 more rows, 7 more variables: type <chr>, dorothea_level <chr>,
    ## #   sources <chr>, references <chr>, curation_effort <dbl>, n_references <chr>,
    ## #   n_resources <int>, and abbreviated variable names ¹​source_genesymbol,
    ## #   ²​target_genesymbol, ³​is_directed, ⁴​is_stimulation, ⁵​is_inhibition,
    ## #   ⁶​consensus_direction, ⁷​consensus_stimulation, ⁸​consensus_inhibition
    ## 
    ## $negative_sources
    ## $negative_sources$transcriptional
    ## [1] "ZEB1" "GLI1"
…
